ggcorrmat • ggstatsplot
…
Note that this function also makes it easy to run the same
correlation matrix across different levels of a factor/grouping
variable.

## for reproducibility
set.seed(123)

## let's obtain correlation coefficients with their CIs
grouped_ggcorrmat(
  data = ggplot2::msleep,
  cor.vars = sleep_total:awake,
  grouping.var = vore,
  output = "dataframe"
)
#> # A tibble: 24 × 12
#>    vore  parameter1  parameter2  estimate conf.level conf.low conf.high
#>    <chr> <chr>       <chr>          <dbl>      <dbl>    <dbl>     <dbl>
#>  1 carni sleep_total sleep_rem     0.9189       0.95   0.6864    0.9810
#>  2 carni sleep_total sleep_cycle   0.3764       0.95  -0.7574    0.9449
#>  3 carni sleep_total awake        -1.000        0.95  -1.000    -1.000 
#>  4 carni sleep_rem   sleep_cycle   0.1216       0.95  -0.8521    0.9066
#>  5 carni sleep_rem   awake        -0.9189       0.95  -0.9810   -0.6865
#>  6 carni sleep_cycle awake        -0.3764       0.95  -0.9449    0.7574
#>  7 herbi sleep_total sleep_rem     0.8610       0.95   0.7012    0.9385
#>  8 herbi sleep_total sleep_cycle  -0.7148       0.95  -0.9138   -0.2389
#>  9 herbi sleep_total awake        -1            0.95  -1        -1     
#> 10 herbi sleep_rem   sleep_cycle  -0.4070       0.95  -0.7952    0.2178
#>    statistic df.error    p.value method              n.obs
#>        <dbl>    <int>      <dbl> <chr>               <int>
#>  1  6.589e+0        8 8.564e-  4 Pearson correlation    10
#>  2  7.038e-1        3 1    e+  0 Pearson correlation     5
#>  3 -1.386e+3       17 1.284e- 43 Pearson correlation    19
#>  4  2.122e-1        3 1    e+  0 Pearson correlation     5
#>  5 -6.589e+0        8 8.564e-  4 Pearson correlation    10
#>  6 -7.038e-1        3 1    e+  0 Pearson correlation     5
#>  7  7.942e+0       22 3.330e-  7 Pearson correlation    24
#>  8 -3.232e+0       10 2.697e-  2 Pearson correlation    12
#>  9 -3.676e+8       30 1.363e-235 Pearson correlation    32
#> 10 -1.409e+0       10 1.891e-  1 Pearson correlation    12
#> # … with 14 more rows
…
