Split data frame into a list by grouping variable. — .grouped_list • ggstatsplot
…
#> 10 Nort… Onyc… carni Rode… lc         14.5    NA    NA       9.5 NA        0.028
#> 11 Tiger Pant… carni Carn… en         15.8    NA    NA       8.2 NA      163.   
#> 12 Jagu… Pant… carni Carn… nt         10.4    NA    NA      13.6  0.157  100    
#> 13 Lion  Pant… carni Carn… vu         13.5    NA    NA      10.5 NA      161.   
#> 14 Casp… Phoca carni Carn… vu          3.5     0.4  NA      20.5 NA       86    
#> 15 Comm… Phoc… carni Ceta… vu          5.6    NA    NA      18.4 NA       53.2  
#> 16 Bott… Turs… carni Ceta… NA          5.2    NA    NA      18.8 NA      173.   
#> 17 Genet Gene… carni Carn… NA          6.3     1.3  NA      17.7  0.0175   2    
#> 18 Arct… Vulp… carni Carn… NA         12.5    NA    NA      11.5  0.0445   3.38 
#> 19 Red … Vulp… carni Carn… NA          9.8     2.4   0.35   14.2  0.0504   4.23 
#> # … with abbreviated variable names ¹​conservation, ²​sleep_total, ³​sleep_rem,
#> #   ⁴​sleep_cycle
#> 
#> $herbi
#> # A tibble: 32 × 11
#>    name  genus vore  order conse…¹ sleep…² sleep…³ sleep…⁴ awake brainwt  bodywt
#>    <chr> <chr> <chr> <chr> <chr>     <dbl>   <dbl>   <dbl> <dbl>   <dbl>   <dbl>
#>  1 Moun… Aplo… herbi Rode… nt         14.4     2.4  NA       9.6 NA      1.35e+0
#>  2 Cow   Bos   herbi Arti… domest…     4       0.7   0.667  20    0.423  6   e+2
#>  3 Thre… Brad… herbi Pilo… NA         14.4     2.2   0.767   9.6 NA      3.85e+0
#>  4 Roe … Capr… herbi Arti… lc          3      NA    NA      21    0.0982 1.48e+1
#>  5 Goat  Capri herbi Arti… lc          5.3     0.6  NA      18.7  0.115  3.35e+1
#>  6 Guin… Cavis herbi Rode… domest…     9.4     0.8   0.217  14.6  0.0055 7.28e-1
#>  7 Chin… Chin… herbi Rode… domest…    12.5     1.5   0.117  11.5  0.0064 4.2 e-1
#>  8 Tree… Dend… herbi Hyra… lc          5.3     0.5  NA      18.7  0.0123 2.95e+0
#>  9 Asia… Elep… herbi Prob… en          3.9    NA    NA      20.1  4.60   2.55e+3
#> 10 Horse Equus herbi Peri… domest…     2.9     0.6   1      21.1  0.655  5.21e+2
#> # … with 22 more rows, and abbreviated variable names ¹​conservation,
#> #   ²​sleep_total, ³​sleep_rem, ⁴​sleep_cycle
…
