ggcoefstats • ggstatsplot
…
fit a GLM with lasso or elasticnet regularization (glmnet)

Although these models are not directly supported in ggcoefstats because of the sheer number of terms that are typically present. But this function can still be used to selectively show few of the terms of interest:

# setup
library(glmnet)
set.seed(2014)

# creating a dataframe
x <- matrix(rnorm(100 * 20), 100, 20)
y <- rnorm(100)
fit1 <- glmnet::glmnet(x, y)
(df <- broom::tidy(fit1))
#> # A tibble: 1,086 x 5
#>    term         step estimate lambda dev.ratio
#>    <chr>       <dbl>    <dbl>  <dbl>     <dbl>
#>  1 (Intercept)     1   -0.207 0.152    0      
#>  2 (Intercept)     2   -0.208 0.139    0.00464
#>  3 (Intercept)     3   -0.209 0.127    0.0111 
#>  4 (Intercept)     4   -0.210 0.115    0.0165 
#>  5 (Intercept)     5   -0.210 0.105    0.0240 
#>  6 (Intercept)     6   -0.210 0.0957   0.0321 
#>  7 (Intercept)     7   -0.210 0.0872   0.0412 
#>  8 (Intercept)     8   -0.210 0.0795   0.0497 
#>  9 (Intercept)     9   -0.209 0.0724   0.0593 
#> 10 (Intercept)    10   -0.208 0.0660   0.0682 
#> # ... with 1,076 more rows
…
