ggcorrmat • ggstatsplot
…
Note that this function also makes it easy to run the same correlation matrix across different levels of a factor/grouping variable.

# for reproducibility
set.seed(123)

# let's obtain correlation coefficients with their CIs
ggstatsplot::grouped_ggcorrmat(
  data = ggplot2::msleep,
  grouping.var = vore,
  output = "dataframe"
)
#> # A tibble: 60 x 11
#>    vore  parameter1 parameter2       r  ci_low  ci_high         t    df
#>    <chr> <chr>      <chr>        <dbl>   <dbl>    <dbl>     <dbl> <int>
#>  1 carni sleep_tot~ sleep_rem   0.9189  0.6864  0.9810   6.589e+0     8
#>  2 carni sleep_tot~ sleep_cyc~  0.3764 -0.7574  0.9449   7.038e-1     3
#>  3 carni sleep_tot~ awake      -1.000  -1.000  -1.000   -1.386e+3    17
#>  4 carni sleep_tot~ brainwt    -0.5244 -0.8815  0.2144  -1.629e+0     7
#>  5 carni sleep_tot~ bodywt     -0.4427 -0.7468  0.01441 -2.036e+0    17
#>  6 carni sleep_rem  sleep_cyc~  0.1216 -0.8521  0.9066   2.122e-1     3
#>  7 carni sleep_rem  awake      -0.9189 -0.9810 -0.6865  -6.589e+0     8
#>  8 carni sleep_rem  brainwt    -0.5006 -0.9331  0.5237  -1.157e+0     4
#>  9 carni sleep_rem  bodywt     -0.4786 -0.8516  0.2162  -1.542e+0     8
#> 10 carni sleep_cyc~ awake      -0.3764 -0.9449  0.7574  -7.038e-1     3
#> # ... with 50 more rows, and 3 more variables: p <dbl>, method <chr>,
#> #   nobs <int>
…
