Visualization of a correlalogram (or correlation matrix) for all levels of a grouping variable — grouped_ggcorrmat • ggstatsplot
…
# for dataframe
grouped_ggcorrmat(
  data = ggplot2::msleep,
  grouping.var = vore,
  type = "bayes",
  output = "dataframe"
)
#> Warning: Series not converged.
#> Warning: Series not converged.
#> Warning: Series not converged.
#> Warning: Series not converged.
#> # A tibble: 60 × 15
#>    vore  parameter1  parameter2  estimate conf.level conf.low conf.high    pd
#>    <chr> <chr>       <chr>          <dbl>      <dbl>    <dbl>     <dbl> <dbl>
#>  1 carni sleep_total sleep_rem     0.845        0.95    0.520  0.960    1    
#>  2 carni sleep_total sleep_cycle   0.204        0.95   -0.529  0.784    0.698
#>  3 carni sleep_total awake        -1.00         0.95   -1.00  -1.00     1    
#>  4 carni sleep_total brainwt      -0.382        0.95   -0.840  0.157    0.895
#>  5 carni sleep_total bodywt       -0.379        0.95   -0.729  0.000949 0.960
#>  6 carni sleep_rem   sleep_cycle   0.0548       0.95   -0.572  0.741    0.562
#>  7 carni sleep_rem   awake        -0.848        0.95   -0.966 -0.611    1    
#>  8 carni sleep_rem   brainwt      -0.308        0.95   -0.822  0.365    0.804
#>  9 carni sleep_rem   bodywt       -0.371        0.95   -0.793  0.149    0.899
#> 10 carni sleep_cycle awake        -0.205        0.95   -0.779  0.543    0.690
#> # … with 50 more rows, and 7 more variables: rope.percentage <dbl>,
#> #   prior.distribution <chr>, prior.location <dbl>, prior.scale <dbl>,
#> #   bayes.factor <dbl>, method <chr>, n.obs <int>
…
