ggcorrmat • ggstatsplot
…
# running the same function for all elements of the list
purrr::map_dfr(
  .x = color_list,                                  # list on which map operation needs to be carried out
  .f = ~ ggstatsplot::ggcorrmat(
    data = .,                                       # `.` is just a placeholder for list element
    cor.vars = c(price, carat, depth:table, x:z),
    output = "correlations",
    corr.method = "robust",
    digits = 3
  ),
  .id = "color"                                      # identity/grouping variable
)
#> # A tibble: 49 x 9
#>    color variable  price carat  depth  table      x      y     z
#>    <chr> <chr>     <dbl> <dbl>  <dbl>  <dbl>  <dbl>  <dbl> <dbl>
#>  1 D     price     1     0.968 -0.015  0.205  0.953  0.953 0.951
#>  2 D     carat     0.968 1      0.003  0.241  0.988  0.987 0.988
#>  3 D     depth    -0.015 0.003  1     -0.276 -0.046 -0.048 0.071
#>  4 D     table     0.205 0.241 -0.276  1      0.241  0.237 0.202
#>  5 D     x         0.953 0.988 -0.046  0.241  1      0.999 0.99 
#>  6 D     y         0.953 0.987 -0.048  0.237  0.999  1     0.99 
#>  7 D     z         0.951 0.988  0.071  0.202  0.99   0.99  1    
#>  8 E     price     1     0.969  0.027  0.148  0.95   0.951 0.95 
#>  9 E     carat     0.969 1      0.038  0.174  0.989  0.989 0.988
#> 10 E     depth     0.027 0.038  1     -0.293 -0.01  -0.011 0.104
#> # ... with 39 more rows
…
