ggcoefstats • ggstatsplot
…
# dataframe #3
x1 <- stats::rnorm(50)
y1 <- stats::rpois(n = 50, lambda = exp(1 + x1))
(df.3 <- data.frame(x = x1, y = y1) %>%
    tibble::as_data_frame(x = .))
#> # A tibble: 50 x 2
#>          x     y
#>      <dbl> <int>
#>  1  1.56      12
#>  2  0.0705     5
#>  3  0.129      3
#>  4  1.72      14
#>  5  0.461      8
#>  6 -1.27       0
#>  7 -0.687      0
#>  8 -0.446      4
#>  9  1.22      11
#> 10  0.360      2
#> # ... with 40 more rows

# dataframe #4
x2 <- stats::rnorm(50)
y2 <- rbinom(n = 50,
             size = 1,
             prob = stats::plogis(x2))

(df.4 <- data.frame(x = x2, y = y2) %>%
    tibble::as_data_frame(x = .))
#> # A tibble: 50 x 2
#>          x     y
#>      <dbl> <int>
#>  1 -0.779      1
#>  2 -0.375      1
#>  3 -0.319      1
#>  4  0.0845     0
#>  5 -0.768      1
#>  6 -0.626      0
#>  7 -0.901      0
#>  8  0.664      1
#>  9  0.300      1
#> 10  0.0749     1
#> # ... with 40 more rows
…
