gghistostats • ggstatsplot
…
  data = gapminder::gapminder,
  x = lifeExp,
  xlab = "Life expectancy",
  test.value = 48,
  messages = FALSE,
  centrality.para = "mean",
  grouping.var = continent,
  # arguments for combine_plots
  title.text = "Life expectancy change in different continents since 1950",
  nrow = 3,
  ncol = 2,
  labels = c("(a)","(b)","(c)","(d)","(e)")
)
#> [[1]]
#> # A tibble: 396 x 1
#>    lifeExp
#>      <dbl>
#>  1    28.8
#>  2    30.3
#>  3    32.0
#>  4    34.0
#>  5    36.1
#>  6    38.4
#>  7    39.9
#>  8    40.8
#>  9    41.7
#> 10    41.8
#> # ... with 386 more rows
#> 
#> [[2]]
#> # A tibble: 360 x 1
#>    lifeExp
#>      <dbl>
#>  1    55.2
#>  2    59.3
#>  3    64.8
#>  4    66.2
#>  5    67.7
#>  6    68.9
#>  7    70.4
#>  8    72  
#>  9    71.6
#> 10    73.0
#> # ... with 350 more rows
#> 
#> [[3]]
#> # A tibble: 624 x 1
#>    lifeExp
#>      <dbl>
#>  1    43.1
#>  2    45.7
#>  3    48.3
#>  4    51.4
#>  5    54.5
#>  6    58.0
#>  7    61.4
#>  8    65.8
#>  9    67.7
#> 10    69.2
#> # ... with 614 more rows
#> 
#> [[4]]
#> # A tibble: 300 x 1
#>    lifeExp
#>      <dbl>
#>  1    62.5
#>  2    64.4
#>  3    65.1
#>  4    65.6
#>  5    67.1
#>  6    68.5
#>  7    69.9
#>  8    70.8
#>  9    71.9
#> 10    73.3
#> # ... with 290 more rows
#> 
#> [[5]]
#> # A tibble: 24 x 1
#>    lifeExp
#>      <dbl>
#>  1    69.1
#>  2    70.3
#>  3    70.9
#>  4    71.1
#>  5    71.9
#>  6    73.5
#>  7    74.7
#>  8    76.3
#>  9    77.6
#> 10    78.8
#> # ... with 14 more rows
…
