ggpiestats • ggstatsplot
…
library(datasets)
library(dplyr)

# looking at the table
dplyr::glimpse(x = Titanic)
#>  table [1:4, 1:2, 1:2, 1:2] 0 0 35 0 0 0 17 0 118 154 ...
#>  - attr(*, "dimnames")=List of 4
#>   ..$ Class   : chr [1:4] "1st" "2nd" "3rd" "Crew"
#>   ..$ Sex     : chr [1:2] "Male" "Female"
#>   ..$ Age     : chr [1:2] "Child" "Adult"
#>   ..$ Survived: chr [1:2] "No" "Yes"

# converting to tibble
tibble::as_data_frame(x = Titanic)
#> # A tibble: 32 x 5
#>    Class Sex    Age   Survived     n
#>    <chr> <chr>  <chr> <chr>    <dbl>
#>  1 1st   Male   Child No           0
#>  2 2nd   Male   Child No           0
#>  3 3rd   Male   Child No          35
#>  4 Crew  Male   Child No           0
#>  5 1st   Female Child No           0
#>  6 2nd   Female Child No           0
#>  7 3rd   Female Child No          17
#>  8 Crew  Female Child No           0
#>  9 1st   Male   Adult No         118
#> 10 2nd   Male   Adult No         154
#> # ... with 22 more rows
…
