Model coefficients for fitted models with the model summary as a caption. — ggcoefstats • ggstatsplot
…
# to get a glance summary
ggstatsplot::ggcoefstats(x = mod, output = "glance")
#> # A tibble: 1 x 11
#>   r.squared adj.r.squared sigma statistic       p.value    df logLik   AIC   BIC
#>       <dbl>         <dbl> <dbl>     <dbl>         <dbl> <int>  <dbl> <dbl> <dbl>
#> 1     0.785         0.762  2.94      34.1 0.00000000173     4  -77.8  166.  173.
#>   deviance df.residual
#>      <dbl>       <int>
#> 1     242.          28

# to get augmented dataframe
ggstatsplot::ggcoefstats(x = mod, output = "augment")
#> # A tibble: 32 x 10
#>    .rownames           mpg   cyl    am .fitted .resid .std.resid   .hat .sigma
#>    <chr>             <dbl> <dbl> <dbl>   <dbl>  <dbl>      <dbl>  <dbl>  <dbl>
#>  1 Mazda RX4          21       6     1    21.4  0.364    -0.131  0.106    2.99
#>  2 Mazda RX4 Wag      21       6     1    21.4  0.364    -0.131  0.106    2.99
#>  3 Datsun 710         22.8     4     1    27.9  5.13     -1.86   0.117    2.80
#>  4 Hornet 4 Drive     21.4     6     0    19.0 -2.38      0.842  0.0735   2.96
#>  5 Hornet Sportabout  18.7     8     0    15.1 -3.63      1.29   0.0784   2.90
#>  6 Valiant            18.1     6     0    19.0  0.919    -0.325  0.0735   2.99
#>  7 Duster 360         14.3     8     0    15.1  0.768    -0.272  0.0784   2.99
#>  8 Merc 240D          24.4     4     0    23.0 -1.43      0.563  0.255    2.98
#>  9 Merc 230           22.8     4     0    23.0  0.171    -0.0672 0.255    2.99
#> 10 Merc 280           19.2     6     0    19.0 -0.181     0.0639 0.0735   2.99
#>      .cooksd
#>        <dbl>
#>  1 0.000510 
#>  2 0.000510 
#>  3 0.114    
#>  4 0.0141   
#>  5 0.0353   
#>  6 0.00209  
#>  7 0.00157  
#>  8 0.0271   
#>  9 0.000387 
#> 10 0.0000811
#> # ... with 22 more rows
…
