Visualization of a correlalogram (or correlation matrix) for all levels of a grouping variable — grouped_ggcorrmat • ggstatsplot
…
#> Also defined by ‘cplm’
#> Found more than one class "mcmc" in cache; using the first, from namespace 'BayesFactor'
#> Also defined by ‘cplm’
#> Warning: the condition has length > 1 and only the first element will be used
#> Found more than one class "mcmc" in cache; using the first, from namespace 'BayesFactor'
#> Also defined by ‘cplm’
#> Found more than one class "mcmc" in cache; using the first, from namespace 'BayesFactor'
#> Also defined by ‘cplm’
#> Warning: the condition has length > 1 and only the first element will be used
#> Found more than one class "mcmc" in cache; using the first, from namespace 'BayesFactor'
#> Also defined by ‘cplm’
#> Found more than one class "mcmc" in cache; using the first, from namespace 'BayesFactor'
#> Also defined by ‘cplm’
#> Warning: the condition has length > 1 and only the first element will be used
#> # A tibble: 60 x 14
#>    vore  parameter1  parameter2      rho ci_low ci_high    pd rope_percentage
#>    <chr> <chr>       <chr>         <dbl>  <dbl>   <dbl> <dbl>           <dbl>
#>  1 carni sleep_total sleep_rem    0.845   0.641  0.961  1              0     
#>  2 carni sleep_total sleep_cycle  0.204  -0.351  0.764  0.698          0.168 
#>  3 carni sleep_total awake       -1.00   -1.00  -1.00   1              0     
#>  4 carni sleep_total brainwt     -0.382  -0.759  0.0549 0.895          0.116 
#>  5 carni sleep_total bodywt      -0.379  -0.662 -0.0654 0.960          0.078 
#>  6 carni sleep_rem   sleep_cycle  0.0548 -0.534  0.587  0.562          0.206 
#>  7 carni sleep_rem   awake       -0.848  -0.962 -0.678  1              0.0118
#>  8 carni sleep_rem   brainwt     -0.308  -0.760  0.252  0.804          0.136 
#>  9 carni sleep_rem   bodywt      -0.371  -0.716  0.0694 0.899          0.124 
#> 10 carni sleep_cycle awake       -0.205  -0.754  0.373  0.690          0.165 
#>    prior_distribution prior_location prior_scale      bf method            nobs
#>    <chr>                       <dbl>       <dbl>   <dbl> <chr>            <int>
#>  1 cauchy                          0       0.707 112.    Bayesian Pearson    10
#>  2 cauchy                          0       0.707   0.714 Bayesian Pearson     5
#>  3 cauchy                          0       0.707  NA     Bayesian Pearson    19
#>  4 cauchy                          0       0.707   1.13  Bayesian Pearson     9
#>  5 cauchy                          0       0.707   1.72  Bayesian Pearson    19
#>  6 cauchy                          0       0.707   0.621 Bayesian Pearson     5
#>  7 cauchy                          0       0.707 112.    Bayesian Pearson    10
#>  8 cauchy                          0       0.707   0.848 Bayesian Pearson     6
#>  9 cauchy                          0       0.707   1.03  Bayesian Pearson    10
#> 10 cauchy                          0       0.707   0.714 Bayesian Pearson     5
#> # ... with 50 more rows
…
