Split dataframe into a list by grouping variable. — grouped_list • ggstatsplot
…
#>  9 Slow lor… Nycti… carni Prima… NA                  11        NA        NA      13    0.0125
#> 10 Northern… Onych… carni Roden… lc                  14.5      NA        NA       9.5 NA     
#> 11 Tiger     Panth… carni Carni… en                  15.8      NA        NA       8.2 NA     
#> 12 Jaguar    Panth… carni Carni… nt                  10.4      NA        NA      13.6  0.157 
#> 13 Lion      Panth… carni Carni… vu                  13.5      NA        NA      10.5 NA     
#> 14 Caspian … Phoca  carni Carni… vu                   3.5       0.4      NA      20.5 NA     
#> 15 Common p… Phoco… carni Cetac… vu                   5.6      NA        NA      18.4 NA     
#> 16 Bottle-n… Tursi… carni Cetac… NA                   5.2      NA        NA      18.8 NA     
#> 17 Genet     Genet… carni Carni… NA                   6.3       1.3      NA      17.7  0.0175
#> 18 Arctic f… Vulpes carni Carni… NA                  12.5      NA        NA      11.5  0.0445
#> 19 Red fox   Vulpes carni Carni… NA                   9.8       2.4       0.35   14.2  0.0504
#> # … with 1 more variable: bodywt <dbl>
#> 
#> $herbi
#> # A tibble: 32 × 11
#>    name     genus  vore  order   conservation sleep_total sleep_rem sleep_cycle awake brainwt
#>    <chr>    <chr>  <chr> <chr>   <chr>              <dbl>     <dbl>       <dbl> <dbl>   <dbl>
#>  1 Mountai… Aplod… herbi Rodent… nt                  14.4       2.4      NA       9.6 NA     
#>  2 Cow      Bos    herbi Artiod… domesticated         4         0.7       0.667  20    0.423 
#>  3 Three-t… Brady… herbi Pilosa  NA                  14.4       2.2       0.767   9.6 NA     
#>  4 Roe deer Capre… herbi Artiod… lc                   3        NA        NA      21    0.0982
#>  5 Goat     Capri  herbi Artiod… lc                   5.3       0.6      NA      18.7  0.115 
#>  6 Guinea … Cavis  herbi Rodent… domesticated         9.4       0.8       0.217  14.6  0.0055
#>  7 Chinchi… Chinc… herbi Rodent… domesticated        12.5       1.5       0.117  11.5  0.0064
#>  8 Tree hy… Dendr… herbi Hyraco… lc                   5.3       0.5      NA      18.7  0.0123
#>  9 Asian e… Eleph… herbi Probos… en                   3.9      NA        NA      20.1  4.60  
#> 10 Horse    Equus  herbi Periss… domesticated         2.9       0.6       1      21.1  0.655 
#> # … with 22 more rows, and 1 more variable: bodywt <dbl>
…
