Adding a column to dataframe describing outlier status. — outlier_df • ggstatsplot
…
      ...
      Additional arguments.

    Examples

# adding column for outlier and a label for that outlier
ggstatsplot::outlier_df(
  data = morley,
  x = Expt,
  y = Speed,
  outlier.label = Run,
  outlier.coef = 2
) %>%
  dplyr::arrange(outlier)
#> # A tibble: 100 x 5
#>     Expt   Run Speed isanoutlier outlier
#>    <int> <int> <int> <lgl>         <int>
#>  1     3     5   720 TRUE              5
#>  2     3     6   720 TRUE              6
#>  3     3     7   620 TRUE              7
#>  4     3     9   970 TRUE              9
#>  5     1     1   850 FALSE            NA
#>  6     1     2   740 FALSE            NA
#>  7     1     3   900 FALSE            NA
#>  8     1     4  1070 FALSE            NA
#>  9     1     5   930 FALSE            NA
#> 10     1     6   850 FALSE            NA
#> # ... with 90 more rows
…
